%YAML 1.1
%TAG !u! tag:unity3d.com,2011:
--- !u!114 &11400000
MonoBehaviour:
  m_ObjectHideFlags: 0
  m_CorrespondingSourceObject: {fileID: 0}
  m_PrefabInternal: {fileID: 0}
  m_GameObject: {fileID: 0}
  m_Enabled: 1
  m_EditorHideFlags: 0
  m_Script: {fileID: 11500000, guid: d54a00a6b819786418c28ed80aa6242e, type: 3}
  m_Name: FieldData
  m_EditorClassIdentifier: 
  player:
  - {fileID: 11400000, guid: d49caa6f698c2754597a94605107be03, type: 2}
  - {fileID: 11400000, guid: d49caa6f698c2754597a94605107be03, type: 2}
  domino:
  - {fileID: 11400000, guid: df33aa1dd4eae274cb5ee5709d39f82f, type: 2}
  - {fileID: 11400000, guid: 7f49bd4bb0814ac48bdddc02c2b85d40, type: 2}
  position:
  - {x: 0, y: 0}
  - {x: 0, y: 1.5}
  rotation:
  - {x: 0, y: 0, z: 90}
  - {x: 0, y: 0, z: 0}
  topNumber: 1
  botNumber: 6
  moveCounter: 2
