%YAML 1.1
%TAG !u! tag:unity3d.com,2011:
--- !u!114 &11400000
MonoBehaviour:
  m_ObjectHideFlags: 0
  m_CorrespondingSourceObject: {fileID: 0}
  m_PrefabInternal: {fileID: 0}
  m_GameObject: {fileID: 0}
  m_Enabled: 1
  m_EditorHideFlags: 0
  m_Script: {fileID: 11500000, guid: fc4bbd0663c32cd45aa9aaac7b8f6afb, type: 3}
  m_Name: Basic
  m_EditorClassIdentifier: 
  artwork:
  - {fileID: 21300000, guid: cc90eba3c23e3434ba06338fca38ed27, type: 3}
  - {fileID: 21300002, guid: cc90eba3c23e3434ba06338fca38ed27, type: 3}
  - {fileID: 21300004, guid: cc90eba3c23e3434ba06338fca38ed27, type: 3}
  - {fileID: 21300006, guid: cc90eba3c23e3434ba06338fca38ed27, type: 3}
  - {fileID: 21300008, guid: cc90eba3c23e3434ba06338fca38ed27, type: 3}
  - {fileID: 21300010, guid: cc90eba3c23e3434ba06338fca38ed27, type: 3}
  - {fileID: 21300012, guid: cc90eba3c23e3434ba06338fca38ed27, type: 3}
  - {fileID: 21300014, guid: cc90eba3c23e3434ba06338fca38ed27, type: 3}
  - {fileID: 21300016, guid: cc90eba3c23e3434ba06338fca38ed27, type: 3}
  - {fileID: 21300018, guid: cc90eba3c23e3434ba06338fca38ed27, type: 3}
  - {fileID: 21300020, guid: cc90eba3c23e3434ba06338fca38ed27, type: 3}
  - {fileID: 21300022, guid: cc90eba3c23e3434ba06338fca38ed27, type: 3}
  - {fileID: 21300024, guid: cc90eba3c23e3434ba06338fca38ed27, type: 3}
  - {fileID: 21300026, guid: cc90eba3c23e3434ba06338fca38ed27, type: 3}
  - {fileID: 21300028, guid: cc90eba3c23e3434ba06338fca38ed27, type: 3}
  - {fileID: 21300030, guid: cc90eba3c23e3434ba06338fca38ed27, type: 3}
  - {fileID: 21300032, guid: cc90eba3c23e3434ba06338fca38ed27, type: 3}
  - {fileID: 21300034, guid: cc90eba3c23e3434ba06338fca38ed27, type: 3}
  - {fileID: 21300036, guid: cc90eba3c23e3434ba06338fca38ed27, type: 3}
  - {fileID: 21300038, guid: cc90eba3c23e3434ba06338fca38ed27, type: 3}
  - {fileID: 21300040, guid: cc90eba3c23e3434ba06338fca38ed27, type: 3}
  - {fileID: 21300042, guid: cc90eba3c23e3434ba06338fca38ed27, type: 3}
  - {fileID: 21300044, guid: cc90eba3c23e3434ba06338fca38ed27, type: 3}
  - {fileID: 21300046, guid: cc90eba3c23e3434ba06338fca38ed27, type: 3}
  - {fileID: 21300048, guid: cc90eba3c23e3434ba06338fca38ed27, type: 3}
  - {fileID: 21300050, guid: cc90eba3c23e3434ba06338fca38ed27, type: 3}
  - {fileID: 21300052, guid: cc90eba3c23e3434ba06338fca38ed27, type: 3}
  - {fileID: 21300054, guid: cc90eba3c23e3434ba06338fca38ed27, type: 3}
