%YAML 1.1
%TAG !u! tag:unity3d.com,2011:
--- !u!114 &11400000
MonoBehaviour:
  m_ObjectHideFlags: 0
  m_CorrespondingSourceObject: {fileID: 0}
  m_PrefabInternal: {fileID: 0}
  m_GameObject: {fileID: 0}
  m_Enabled: 1
  m_EditorHideFlags: 0
  m_Script: {fileID: 11500000, guid: 4b614aed66188a04490b4d17895d761d, type: 3}
  m_Name: 5.6
  m_EditorClassIdentifier: 
  value: {x: 5, y: 6}
  domino: 5,6
  artwork: {fileID: 21300054, guid: cc90eba3c23e3434ba06338fca38ed27, type: 3}
  isDouble: 0
